
> website@1.0.0 dev /Users/badger/Projects/whippet/website
> nuxt

04:35:43 ℹ Listening on: http://localhost:8000/
04:35:58 ℹ Preparing project for development
04:35:58 ℹ Initial build may take a while
04:35:58 ✔ Builder initialized
04:35:58 ✔ Nuxt files generated
webpackbar 04:36:04 ℹ Compiling Client
